{
    "folder": "absolute_path_to_instance_repo",
    "students": [
        "1111111",
        "2222222",
        "3333333",
        "4444444"
    ],
    "instance": {
        "title": "Programmation Web",
        "code": "D08",
        "evaluations": [
            {
                "id": "uuid",
                "title": "Exercice",
                "total": 10,
                "tasks": [
                    {
                        "id": "uuid",
                        "name": "exercice A"
                    },
                    {
                        "id": "uuid",
                        "name": "exercice B"
                    }
                ],
                "teams": []
            },
            {
                "id": "uuid",
                "title": "Quiz HTML",
                "total": 15,
                "tasks": [],
                "teams": []
            },
            {
                "id": "uuid",
                "title": "Quiz CSS",
                "total": 15,
                "tasks": [],
                "teams": []
            },
            {
                "id": "uuid",
                "title": "Quiz Final",
                "total": 30,
                "tasks": [],
                "teams": []
            },
            {
                "id": "uuid",
                "title": "Travail Pratique",
                "total": 30,
                "tasks": [
                    {
                        "id": "uuid",
                        "name": "Respect des consignes",
                        "value": 10
                    },
                    {
                        "id": "uuid",
                        "name": "Bonne sémantique",
                        "value": 15
                    }
                ],
                "teams": [
                    [
                        "4444444",
                        "1111111"
                    ],
                    [
                        "2222222",
                        "3333333"
                    ]
                ]
            }
        ]
    }
}