{
    "editor.formatOnSave": true,
    "typescript.format.enable": true,
    "javascript.format.enable": false,
    "typescript.format.insertSpaceBeforeFunctionParenthesis": true,
    "javascript.format.insertSpaceBeforeFunctionParenthesis": true,
    "typescript.format.insertSpaceAfterConstructor": true,
    "editor.codeActionsOnSave": {
        "source.fixAll.eslint": true
    },
    "html.format.wrapLineLength": 0,
    "xml.format.joinContentLines": true
}